<?xml version="1.0" encoding="UTF-8" standalone="no"?>
<!-- Created with Inkscape (http://www.inkscape.org/) -->

<svg
   xmlns:dc="http://purl.org/dc/elements/1.1/"
   xmlns:cc="http://creativecommons.org/ns#"
   xmlns:rdf="http://www.w3.org/1999/02/22-rdf-syntax-ns#"
   xmlns:svg="http://www.w3.org/2000/svg"
   xmlns="http://www.w3.org/2000/svg"
   xmlns:sodipodi="http://sodipodi.sourceforge.net/DTD/sodipodi-0.dtd"
   xmlns:inkscape="http://www.inkscape.org/namespaces/inkscape"
   width="3.2770762in"
   height="1.5723643in"
   id="svg5286"
   version="1.1"
   inkscape:version="0.91 r13725"
   sodipodi:docname="example.svg">
  <defs
     id="defs5288" />
  <sodipodi:namedview
     id="base"
     pagecolor="#ffffff"
     bordercolor="#666666"
     borderopacity="1.0"
     inkscape:pageopacity="0.0"
     inkscape:pageshadow="2"
     inkscape:zoom="3.3941126"
     inkscape:cx="135.458"
     inkscape:cy="49.814393"
     inkscape:current-layer="g3482"
     inkscape:document-units="in"
     showgrid="false"
     inkscape:window-width="1440"
     inkscape:window-height="817"
     inkscape:window-x="768"
     inkscape:window-y="25"
     inkscape:window-maximized="1"
     units="in"
     fit-margin-top="0"
     fit-margin-left="0"
     fit-margin-right="0"
     fit-margin-bottom="0" />
  <metadata
     id="metadata5291">
    <rdf:RDF>
      <cc:Work
         rdf:about="">
        <dc:format>image/svg+xml</dc:format>
        <dc:type
           rdf:resource="http://purl.org/dc/dcmitype/StillImage" />
        <dc:title />
      </cc:Work>
    </rdf:RDF>
  </metadata>
  <g
     id="layer1"
     inkscape:label="Layer 1"
     inkscape:groupmode="layer"
     transform="translate(-65.89056,-410.65067)">
    <circle
       style="color:#000000;display:inline;overflow:visible;visibility:visible;fill:none;stroke:#000000;stroke-width:0.76104122;stroke-linecap:butt;stroke-linejoin:miter;stroke-miterlimit:4;stroke-dasharray:none;stroke-dashoffset:0;stroke-opacity:1;marker:none;enable-background:accumulate"
       id="path5030-8"
       cx="149.48842"
       cy="480.54105"
       r="13.288023" />
    <circle
       r="13.288023"
       cy="526.73828"
       cx="96.119469"
       style="color:#000000;display:inline;overflow:visible;visibility:visible;fill:none;stroke:#000000;stroke-width:0.76104122;stroke-linecap:butt;stroke-linejoin:miter;stroke-miterlimit:4;stroke-dasharray:none;stroke-dashoffset:0;stroke-opacity:1;marker:none;enable-background:accumulate"
       id="path5030" />
    <circle
       r="13.288023"
       cy="526.73828"
       cx="201.255"
       style="color:#000000;display:inline;overflow:visible;visibility:visible;fill:none;stroke:#000000;stroke-width:0.76104122;stroke-linecap:butt;stroke-linejoin:miter;stroke-miterlimit:4;stroke-dasharray:none;stroke-dashoffset:0;stroke-opacity:1;marker:none;enable-background:accumulate"
       id="path5030-7" />
    <path
       style="color:#000000;clip-rule:nonzero;display:inline;overflow:visible;visibility:visible;opacity:1;isolation:auto;mix-blend-mode:normal;color-interpolation:sRGB;color-interpolation-filters:linearRGB;solid-color:#000000;solid-opacity:1;fill:none;fill-opacity:1;fill-rule:evenodd;stroke:#000000;stroke-width:0.80118483px;stroke-linecap:butt;stroke-linejoin:miter;stroke-miterlimit:4;stroke-dasharray:none;stroke-dashoffset:0;stroke-opacity:1;color-rendering:auto;image-rendering:auto;shape-rendering:auto;text-rendering:auto;enable-background:accumulate"
       d="m 106.38748,517.82928 c 1.51,0 32.22892,-29.43621 32.22892,-29.43621"
       id="path5061"
       inkscape:connector-curvature="0"
       sodipodi:nodetypes="cc" />
    <path
       style="color:#000000;clip-rule:nonzero;display:inline;overflow:visible;visibility:visible;opacity:1;isolation:auto;mix-blend-mode:normal;color-interpolation:sRGB;color-interpolation-filters:linearRGB;solid-color:#000000;solid-opacity:1;fill:none;fill-opacity:1;fill-rule:evenodd;stroke:#000000;stroke-width:0.80118483px;stroke-linecap:butt;stroke-linejoin:miter;stroke-miterlimit:4;stroke-dasharray:none;stroke-dashoffset:0;stroke-opacity:1;color-rendering:auto;image-rendering:auto;shape-rendering:auto;text-rendering:auto;enable-background:accumulate"
       d="m 161.26643,487.48707 29.72055,31.24821"
       id="path5063"
       inkscape:connector-curvature="0"
       sodipodi:nodetypes="cc" />
    <path
       style="color:#000000;clip-rule:nonzero;display:inline;overflow:visible;visibility:visible;opacity:1;isolation:auto;mix-blend-mode:normal;color-interpolation:sRGB;color-interpolation-filters:linearRGB;solid-color:#000000;solid-opacity:1;fill:none;fill-opacity:1;fill-rule:evenodd;stroke:#000000;stroke-width:0.80118483px;stroke-linecap:butt;stroke-linejoin:miter;stroke-miterlimit:4;stroke-dasharray:none;stroke-dashoffset:0;stroke-opacity:1;color-rendering:auto;image-rendering:auto;shape-rendering:auto;text-rendering:auto;enable-background:accumulate"
       d="m 109.10549,528.09731 78.25748,0"
       id="path5065"
       inkscape:connector-curvature="0"
       sodipodi:nodetypes="cc" />
    <text
       xml:space="preserve"
       style="color:#000000;font-style:italic;font-variant:normal;font-weight:bold;font-stretch:normal;font-size:7.97281265px;line-height:normal;font-family:'Nimbus Sans L';-inkscape-font-specification:'Nimbus Sans L Bold';text-indent:0;text-align:end;text-decoration:none;text-decoration-line:none;letter-spacing:normal;word-spacing:normal;text-transform:none;direction:ltr;block-progression:tb;writing-mode:lr-tb;baseline-shift:baseline;text-anchor:end;display:inline;overflow:visible;visibility:visible;fill:#000000;stroke:none;stroke-width:2.0999999;marker:none;enable-background:accumulate"
       x="113.17429"
       y="549.91772"
       id="text5067"><tspan
         sodipodi:role="line"
         id="tspan5069"
         x="113.17429"
         y="549.91772">start node</tspan></text>
    <text
       xml:space="preserve"
       style="color:#000000;font-style:italic;font-variant:normal;font-weight:bold;font-stretch:normal;font-size:7.97281265px;line-height:normal;font-family:'Nimbus Sans L';-inkscape-font-specification:'Nimbus Sans L Bold';text-indent:0;text-align:end;text-decoration:none;text-decoration-line:none;letter-spacing:normal;word-spacing:normal;text-transform:none;direction:ltr;block-progression:tb;writing-mode:lr-tb;baseline-shift:baseline;text-anchor:end;display:inline;overflow:visible;visibility:visible;fill:#000000;stroke:none;stroke-width:2.0999999;marker:none;enable-background:accumulate"
       x="221.54233"
       y="548.45551"
       id="text5067-9"><tspan
         sodipodi:role="line"
         id="tspan5069-2"
         x="221.54233"
         y="548.45551">goal node</tspan></text>
    <text
       xml:space="preserve"
       style="color:#000000;font-style:italic;font-variant:normal;font-weight:bold;font-stretch:normal;font-size:13.04642105px;line-height:normal;font-family:'Nimbus Sans L';-inkscape-font-specification:'Nimbus Sans L Bold';text-indent:0;text-align:end;text-decoration:none;text-decoration-line:none;letter-spacing:normal;word-spacing:normal;text-transform:none;direction:ltr;block-progression:tb;writing-mode:lr-tb;baseline-shift:baseline;text-anchor:end;display:inline;overflow:visible;visibility:visible;fill:#000000;fill-opacity:1;fill-rule:nonzero;stroke:none;stroke-width:2.0999999;marker:none;enable-background:accumulate"
       x="106.44788"
       y="531.2381"
       id="text5092"><tspan
         sodipodi:role="line"
         id="tspan5094"
         x="106.44788"
         y="531.2381">h=5</tspan></text>
    <text
       xml:space="preserve"
       style="color:#000000;font-style:italic;font-variant:normal;font-weight:bold;font-stretch:normal;font-size:13.04642105px;line-height:normal;font-family:'Nimbus Sans L';-inkscape-font-specification:'Nimbus Sans L Bold';text-indent:0;text-align:end;text-decoration:none;text-decoration-line:none;letter-spacing:normal;word-spacing:normal;text-transform:none;direction:ltr;block-progression:tb;writing-mode:lr-tb;baseline-shift:baseline;text-anchor:end;display:inline;overflow:visible;visibility:visible;fill:#000000;fill-opacity:1;fill-rule:nonzero;stroke:none;stroke-width:2.0999999;marker:none;enable-background:accumulate"
       x="160.23962"
       y="485.25226"
       id="text5096"><tspan
         sodipodi:role="line"
         id="tspan5098"
         x="160.23962"
         y="485.25226">h=2</tspan></text>
    <text
       xml:space="preserve"
       style="color:#000000;font-style:italic;font-variant:normal;font-weight:bold;font-stretch:normal;font-size:13.04642105px;line-height:normal;font-family:'Nimbus Sans L';-inkscape-font-specification:'Nimbus Sans L Bold';text-indent:0;text-align:end;text-decoration:none;text-decoration-line:none;letter-spacing:normal;word-spacing:normal;text-transform:none;direction:ltr;block-progression:tb;writing-mode:lr-tb;baseline-shift:baseline;text-anchor:end;display:inline;overflow:visible;visibility:visible;fill:#000000;fill-opacity:1;fill-rule:nonzero;stroke:none;stroke-width:2.0999999;marker:none;enable-background:accumulate"
       x="211.70422"
       y="531.78168"
       id="text5100"><tspan
         sodipodi:role="line"
         id="tspan5102"
         x="211.70422"
         y="531.78168">h=0</tspan></text>
    <g
       id="g3510"
       transform="matrix(0.80118484,0,0,0.80118484,16.304782,109.38682)">
      <text
         id="text5305-3"
         y="549.46783"
         x="138.23453"
         style="color:#000000;font-style:normal;font-variant:normal;font-weight:bold;font-stretch:normal;font-size:13.75px;line-height:normal;font-family:'Nimbus Sans L';-inkscape-font-specification:'Nimbus Sans L Bold';text-indent:0;text-align:start;text-decoration:none;text-decoration-line:none;letter-spacing:normal;word-spacing:normal;text-transform:none;direction:ltr;block-progression:tb;writing-mode:lr-tb;baseline-shift:baseline;text-anchor:start;display:inline;overflow:visible;visibility:visible;fill:#0000ff;fill-opacity:1;fill-rule:nonzero;stroke:none;stroke-width:2.0999999;marker:none;enable-background:accumulate"
         xml:space="preserve"><tspan
           y="549.46783"
           x="138.23453"
           id="tspan5307-6"
           sodipodi:role="line">c<tspan
   style="font-size:81.12984265%;baseline-shift:sub"
   id="tspan3428">h</tspan>=5</tspan></text>
      <text
         id="text5104"
         y="535.43011"
         x="138.23453"
         style="color:#000000;font-style:normal;font-variant:normal;font-weight:bold;font-stretch:normal;font-size:13.75px;line-height:normal;font-family:'Nimbus Sans L';-inkscape-font-specification:'Nimbus Sans L Bold';text-indent:0;text-align:start;text-decoration:none;text-decoration-line:none;letter-spacing:normal;word-spacing:normal;text-transform:none;direction:ltr;block-progression:tb;writing-mode:lr-tb;baseline-shift:baseline;text-anchor:start;display:inline;overflow:visible;visibility:visible;fill:#ff0000;fill-opacity:1;fill-rule:nonzero;stroke:none;stroke-width:2.0999999;marker:none;enable-background:accumulate"
         xml:space="preserve"><tspan
           y="535.43011"
           x="138.23453"
           id="tspan5106"
           sodipodi:role="line">c<tspan
   style="font-size:81.12984265%;baseline-shift:sub"
   id="tspan3428">a</tspan>=10</tspan></text>
    </g>
    <g
       id="g3482"
       transform="matrix(0.80118484,0,0,0.80118484,10.989478,114.12717)">
      <text
         id="text5305"
         y="487.00409"
         x="84.746193"
         style="color:#000000;font-style:normal;font-variant:normal;font-weight:bold;font-stretch:normal;font-size:13.75px;line-height:normal;font-family:'Nimbus Sans L';-inkscape-font-specification:'Nimbus Sans L Bold';text-indent:0;text-align:start;text-decoration:none;text-decoration-line:none;letter-spacing:normal;word-spacing:normal;text-transform:none;direction:ltr;block-progression:tb;writing-mode:lr-tb;baseline-shift:baseline;text-anchor:start;display:inline;overflow:visible;visibility:visible;fill:#0000ff;fill-opacity:1;fill-rule:nonzero;stroke:none;stroke-width:2.0999999;marker:none;enable-background:accumulate"
         xml:space="preserve"><tspan
           y="487.00409"
           x="84.746193"
           id="tspan5307"
           sodipodi:role="line">c<tspan
   style="font-size:81.12984265%;baseline-shift:sub"
   id="tspan3430">h</tspan>=1</tspan></text>
      <text
         id="text5104-0"
         y="472.80502"
         x="84.746193"
         style="color:#000000;font-style:normal;font-variant:normal;font-weight:bold;font-stretch:normal;font-size:13.75px;line-height:normal;font-family:'Nimbus Sans L';-inkscape-font-specification:'Nimbus Sans L Bold';text-indent:0;text-align:start;text-decoration:none;text-decoration-line:none;letter-spacing:normal;word-spacing:normal;text-transform:none;direction:ltr;block-progression:tb;writing-mode:lr-tb;baseline-shift:baseline;text-anchor:start;display:inline;overflow:visible;visibility:visible;fill:#ff0000;fill-opacity:1;fill-rule:nonzero;stroke:none;stroke-width:2.0999999;marker:none;enable-background:accumulate"
         xml:space="preserve"><tspan
           y="472.80502"
           x="84.746193"
           id="tspan5106-2"
           sodipodi:role="line">c<tspan
   style="font-size:81.12984265%;baseline-shift:sub"
   id="tspan3428">a</tspan>=6</tspan></text>
    </g>
    <g
       id="g3488"
       transform="matrix(0.80118484,0,0,0.80118484,13.100042,109.45358)">
      <text
         id="text5305-3-1"
         y="492.83743"
         x="209.36678"
         style="color:#000000;font-style:normal;font-variant:normal;font-weight:bold;font-stretch:normal;font-size:13.75px;line-height:normal;font-family:'Nimbus Sans L';-inkscape-font-specification:'Nimbus Sans L Bold';text-indent:0;text-align:start;text-decoration:none;text-decoration-line:none;letter-spacing:normal;word-spacing:normal;text-transform:none;direction:ltr;block-progression:tb;writing-mode:lr-tb;baseline-shift:baseline;text-anchor:start;display:inline;overflow:visible;visibility:visible;fill:#0000ff;fill-opacity:1;fill-rule:nonzero;stroke:none;stroke-width:2.0999999;marker:none;enable-background:accumulate"
         xml:space="preserve"><tspan
           y="492.83743"
           x="209.36678"
           id="tspan5307-6-2"
           sodipodi:role="line">c<tspan
   style="font-size:81.12984265%;baseline-shift:sub"
   id="tspan3428">h</tspan>=2</tspan></text>
      <text
         id="text5104-0-3"
         y="478.63837"
         x="209.36678"
         style="color:#000000;font-style:normal;font-variant:normal;font-weight:bold;font-stretch:normal;font-size:13.75px;line-height:normal;font-family:'Nimbus Sans L';-inkscape-font-specification:'Nimbus Sans L Bold';text-indent:0;text-align:start;text-decoration:none;text-decoration-line:none;letter-spacing:normal;word-spacing:normal;text-transform:none;direction:ltr;block-progression:tb;writing-mode:lr-tb;baseline-shift:baseline;text-anchor:start;display:inline;overflow:visible;visibility:visible;fill:#ff0000;fill-opacity:1;fill-rule:nonzero;stroke:none;stroke-width:2.0999999;marker:none;enable-background:accumulate"
         xml:space="preserve"><tspan
           y="478.63837"
           x="209.36678"
           id="tspan5106-2-7"
           sodipodi:role="line">c<tspan
   style="font-size:81.12984265%;baseline-shift:sub"
   id="tspan3428">a</tspan>=12</tspan></text>
    </g>
    <text
       xml:space="preserve"
       style="color:#000000;font-style:normal;font-variant:normal;font-weight:bold;font-stretch:normal;font-size:13.04642105px;line-height:normal;font-family:'Nimbus Sans L';-inkscape-font-specification:'Nimbus Sans L Bold';text-indent:0;text-align:end;text-decoration:none;text-decoration-line:none;letter-spacing:normal;word-spacing:normal;text-transform:none;direction:ltr;block-progression:tb;writing-mode:lr-tb;baseline-shift:baseline;text-anchor:end;display:inline;overflow:visible;visibility:visible;fill:#000000;fill-opacity:1;fill-rule:nonzero;stroke:none;stroke-width:2.0999999;marker:none;enable-background:accumulate"
       x="74.979431"
       y="522.35925"
       id="text5160"><tspan
         sodipodi:role="line"
         id="tspan5162"
         x="74.979431"
         y="522.35925">A</tspan></text>
    <text
       xml:space="preserve"
       style="color:#000000;font-style:normal;font-variant:normal;font-weight:bold;font-stretch:normal;font-size:13.04642105px;line-height:normal;font-family:'Nimbus Sans L';-inkscape-font-specification:'Nimbus Sans L Bold';text-indent:0;text-align:end;text-decoration:none;text-decoration-line:none;letter-spacing:normal;word-spacing:normal;text-transform:none;direction:ltr;block-progression:tb;writing-mode:lr-tb;baseline-shift:baseline;text-anchor:end;display:inline;overflow:visible;visibility:visible;fill:#000000;fill-opacity:1;fill-rule:nonzero;stroke:none;stroke-width:2.0999999;marker:none;enable-background:accumulate"
       x="173.22083"
       y="478.53595"
       id="text5160-5"><tspan
         sodipodi:role="line"
         id="tspan5162-9"
         x="173.22083"
         y="478.53595">B</tspan></text>
    <text
       xml:space="preserve"
       style="color:#000000;font-style:normal;font-variant:normal;font-weight:bold;font-stretch:normal;font-size:13.04642105px;line-height:normal;font-family:'Nimbus Sans L';-inkscape-font-specification:'Nimbus Sans L Bold';text-indent:0;text-align:end;text-decoration:none;text-decoration-line:none;letter-spacing:normal;word-spacing:normal;text-transform:none;direction:ltr;block-progression:tb;writing-mode:lr-tb;baseline-shift:baseline;text-anchor:end;display:inline;overflow:visible;visibility:visible;fill:#000000;fill-opacity:1;fill-rule:nonzero;stroke:none;stroke-width:2.0999999;marker:none;enable-background:accumulate"
       x="221.20578"
       y="518.96069"
       id="text5160-5-2"><tspan
         sodipodi:role="line"
         id="tspan5162-9-2"
         x="221.20578"
         y="518.96069">C</tspan></text>
    <g
       id="g3516"
       transform="matrix(0.80118484,0,0,0.80118484,82.027035,113.48577)">
      <text
         id="text5305-3-9"
         y="431.99411"
         x="90.154266"
         style="color:#000000;font-style:normal;font-variant:normal;font-weight:bold;font-stretch:normal;font-size:13.75px;line-height:normal;font-family:'Nimbus Sans L';-inkscape-font-specification:'Nimbus Sans L Bold';text-indent:0;text-align:start;text-decoration:none;text-decoration-line:none;letter-spacing:normal;word-spacing:normal;text-transform:none;direction:ltr;block-progression:tb;writing-mode:lr-tb;baseline-shift:baseline;text-anchor:start;display:inline;overflow:visible;visibility:visible;fill:#0000ff;fill-opacity:1;fill-rule:nonzero;stroke:none;stroke-width:2.0999999;marker:none;enable-background:accumulate"
         xml:space="preserve"><tspan
           y="431.99411"
           x="90.154266"
           id="tspan5307-6-3"
           sodipodi:role="line">c<tspan
   style="font-size:81.12984265%;baseline-shift:sub"
   id="tspan3428">h</tspan>=100</tspan></text>
      <text
         id="text5278"
         y="417.64542"
         x="90.154266"
         style="color:#000000;font-style:normal;font-variant:normal;font-weight:bold;font-stretch:normal;font-size:13.75px;line-height:normal;font-family:'Nimbus Sans L';-inkscape-font-specification:'Nimbus Sans L Bold';text-indent:0;text-align:start;text-decoration:none;text-decoration-line:none;letter-spacing:normal;word-spacing:normal;text-transform:none;direction:ltr;block-progression:tb;writing-mode:lr-tb;baseline-shift:baseline;text-anchor:start;display:inline;overflow:visible;visibility:visible;fill:#000000;fill-opacity:1;fill-rule:nonzero;stroke:none;stroke-width:2.0999999;marker:none;enable-background:accumulate"
         xml:space="preserve"><tspan
           y="417.64542"
           x="90.154266"
           id="tspan5280"
           sodipodi:role="line"><tspan
             id="tspan5497"
             style="font-style:normal;font-variant:normal;font-weight:bold;font-stretch:normal;font-size:13.75px;font-family:'Nimbus Sans L';-inkscape-font-specification:'Nimbus Sans L Bold';text-align:start;text-anchor:start;fill:#ff0000">c<tspan
   style="font-size:81.12984265%;baseline-shift:sub"
   id="tspan3428">a</tspan>=1000</tspan></tspan></text>
    </g>
    <text
       xml:space="preserve"
       style="color:#000000;font-style:normal;font-variant:normal;font-weight:bold;font-stretch:normal;font-size:13.04642105px;line-height:normal;font-family:'Nimbus Sans L';-inkscape-font-specification:'Nimbus Sans L Bold';text-indent:0;text-align:end;text-decoration:none;text-decoration-line:none;letter-spacing:normal;word-spacing:normal;text-transform:none;direction:ltr;block-progression:tb;writing-mode:lr-tb;baseline-shift:baseline;text-anchor:end;display:inline;overflow:visible;visibility:visible;fill:#000000;fill-opacity:1;fill-rule:nonzero;stroke:none;stroke-width:2.0999999;marker:none;enable-background:accumulate"
       x="90.598312"
       y="435.08115"
       id="text5282"><tspan
         sodipodi:role="line"
         id="tspan5284"
         x="90.598312"
         y="435.08115" /></text>
    <circle
       style="color:#000000;display:inline;overflow:visible;visibility:visible;fill:none;stroke:#000000;stroke-width:0.76104122;stroke-linecap:butt;stroke-linejoin:miter;stroke-miterlimit:4;stroke-dasharray:none;stroke-dashoffset:0;stroke-opacity:1;marker:none;enable-background:accumulate"
       id="path5030-8-3"
       cx="150.63678"
       cy="424.31921"
       r="13.288023" />
    <text
       xml:space="preserve"
       style="color:#000000;font-style:italic;font-variant:normal;font-weight:bold;font-stretch:normal;font-size:13.04642105px;line-height:normal;font-family:'Nimbus Sans L';-inkscape-font-specification:'Nimbus Sans L Bold';text-indent:0;text-align:end;text-decoration:none;text-decoration-line:none;letter-spacing:normal;word-spacing:normal;text-transform:none;direction:ltr;block-progression:tb;writing-mode:lr-tb;baseline-shift:baseline;text-anchor:end;display:inline;overflow:visible;visibility:visible;fill:#000000;fill-opacity:1;fill-rule:nonzero;stroke:none;stroke-width:2.0999999;marker:none;enable-background:accumulate"
       x="161.388"
       y="429.03043"
       id="text5096-6"><tspan
         sodipodi:role="line"
         id="tspan5098-7"
         x="161.388"
         y="429.03043">h=2</tspan></text>
    <text
       xml:space="preserve"
       style="color:#000000;font-style:normal;font-variant:normal;font-weight:bold;font-stretch:normal;font-size:13.04642105px;line-height:normal;font-family:'Nimbus Sans L';-inkscape-font-specification:'Nimbus Sans L Bold';text-indent:0;text-align:end;text-decoration:none;text-decoration-line:none;letter-spacing:normal;word-spacing:normal;text-transform:none;direction:ltr;block-progression:tb;writing-mode:lr-tb;baseline-shift:baseline;text-anchor:end;display:inline;overflow:visible;visibility:visible;fill:#000000;fill-opacity:1;fill-rule:nonzero;stroke:none;stroke-width:2.0999999;marker:none;enable-background:accumulate"
       x="133.29089"
       y="428.49353"
       id="text5160-5-5"><tspan
         sodipodi:role="line"
         id="tspan5162-9-3"
         x="133.29089"
         y="428.49353">D</tspan></text>
    <path
       style="fill:none;fill-rule:evenodd;stroke:#000000;stroke-width:0.80118483px;stroke-linecap:butt;stroke-linejoin:miter;stroke-opacity:1"
       d="m 149.61438,437.54574 0,29.46761"
       id="path3494"
       inkscape:connector-curvature="0"
       sodipodi:nodetypes="cc" />
    <text
       xml:space="preserve"
       style="color:#000000;font-style:normal;font-variant:normal;font-weight:bold;font-stretch:normal;font-size:13.75px;line-height:125%;font-family:'Nimbus Sans L';-inkscape-font-specification:'Nimbus Sans L Bold';text-indent:0;text-align:start;text-decoration:none;text-decoration-line:none;text-decoration-style:solid;text-decoration-color:#000000;letter-spacing:normal;word-spacing:normal;text-transform:none;direction:ltr;block-progression:tb;writing-mode:lr-tb;baseline-shift:baseline;text-anchor:start;white-space:normal;clip-rule:nonzero;display:inline;overflow:visible;visibility:visible;opacity:1;isolation:auto;mix-blend-mode:normal;color-interpolation:sRGB;color-interpolation-filters:linearRGB;solid-color:#000000;solid-opacity:1;fill:#000000;fill-opacity:1;fill-rule:evenodd;stroke:none;stroke-width:1px;stroke-linecap:butt;stroke-linejoin:miter;stroke-miterlimit:4;stroke-dasharray:none;stroke-dashoffset:0;stroke-opacity:1;marker:none;marker-start:none;marker-mid:none;marker-end:none;color-rendering:auto;image-rendering:auto;shape-rendering:auto;text-rendering:auto;enable-background:accumulate"
       x="241.65858"
       y="436.76187"
       id="text3523"
       sodipodi:linespacing="125%"><tspan
         sodipodi:role="line"
         x="241.65858"
         y="436.76187"
         id="tspan3527">A*</tspan></text>
    <text
       xml:space="preserve"
       style="color:#000000;font-style:normal;font-variant:normal;font-weight:bold;font-stretch:normal;font-size:10px;line-height:125%;font-family:'Nimbus Sans L';-inkscape-font-specification:'Nimbus Sans L Bold';text-indent:0;text-align:start;text-decoration:none;text-decoration-line:none;text-decoration-style:solid;text-decoration-color:#000000;letter-spacing:normal;word-spacing:normal;text-transform:none;direction:ltr;block-progression:tb;writing-mode:lr-tb;baseline-shift:baseline;text-anchor:start;white-space:normal;clip-rule:nonzero;display:inline;overflow:visible;visibility:visible;opacity:1;isolation:auto;mix-blend-mode:normal;color-interpolation:sRGB;color-interpolation-filters:linearRGB;solid-color:#000000;solid-opacity:1;fill:#000000;fill-opacity:1;fill-rule:evenodd;stroke:none;stroke-width:1px;stroke-linecap:butt;stroke-linejoin:miter;stroke-miterlimit:4;stroke-dasharray:none;stroke-dashoffset:0;stroke-opacity:1;marker:none;marker-start:none;marker-mid:none;marker-end:none;color-rendering:auto;image-rendering:auto;shape-rendering:auto;text-rendering:auto;enable-background:accumulate"
       x="229.90117"
       y="422.3251"
       id="text3531"
       sodipodi:linespacing="125%"><tspan
         sodipodi:role="line"
         id="tspan3533"
         x="229.90117"
         y="422.3251">e: expand p: pop q:queue</tspan></text>
    <text
       xml:space="preserve"
       style="color:#000000;font-style:normal;font-variant:normal;font-weight:bold;font-stretch:normal;font-size:10px;line-height:93.99999976%;font-family:'Nimbus Sans L';-inkscape-font-specification:'Nimbus Sans L Bold';text-indent:0;text-align:start;text-decoration:none;text-decoration-line:none;text-decoration-style:solid;text-decoration-color:#000000;letter-spacing:normal;word-spacing:normal;text-transform:none;direction:ltr;block-progression:tb;writing-mode:lr-tb;baseline-shift:baseline;text-anchor:start;white-space:normal;clip-rule:nonzero;display:inline;overflow:visible;visibility:visible;opacity:1;isolation:auto;mix-blend-mode:normal;color-interpolation:sRGB;color-interpolation-filters:linearRGB;solid-color:#000000;solid-opacity:1;fill:#000000;fill-opacity:1;fill-rule:evenodd;stroke:none;stroke-width:1px;stroke-linecap:butt;stroke-linejoin:miter;stroke-miterlimit:4;stroke-dasharray:none;stroke-dashoffset:0;stroke-opacity:1;marker:none;marker-start:none;marker-mid:none;marker-end:none;color-rendering:auto;image-rendering:auto;shape-rendering:auto;text-rendering:auto;enable-background:accumulate"
       x="232.12305"
       y="446.48456"
       id="text3535"
       sodipodi:linespacing="94%"><tspan
         sodipodi:role="line"
         id="tspan3537"
         x="232.12305"
         y="446.48456">q A(5)</tspan><tspan
         sodipodi:role="line"
         x="232.12305"
         y="455.88455"
         id="tspan3539">p A(5)</tspan><tspan
         sodipodi:role="line"
         x="232.12305"
         y="465.28455"
         id="tspan3541">e A(5)</tspan><tspan
         sodipodi:role="line"
         x="232.12305"
         y="474.68457"
         id="tspan3543">q B(8)</tspan><tspan
         sodipodi:role="line"
         x="232.12305"
         y="484.08456"
         id="tspan3821">q C(10)</tspan><tspan
         sodipodi:role="line"
         x="232.12305"
         y="493.48456"
         id="tspan3547">p B(8)</tspan><tspan
         sodipodi:role="line"
         x="232.12305"
         y="502.88455"
         id="tspan3549">e B(8)</tspan><tspan
         sodipodi:role="line"
         x="232.12305"
         y="512.28455"
         id="tspan3551">q D(1006)</tspan><tspan
         sodipodi:role="line"
         x="232.12305"
         y="521.68457"
         id="tspan3553">q C(18)</tspan><tspan
         sodipodi:role="line"
         x="232.12305"
         y="531.08453"
         id="tspan3555">p C(10)</tspan><tspan
         sodipodi:role="line"
         x="232.12305"
         y="540.48456"
         id="tspan3557">e C(10)</tspan><tspan
         sodipodi:role="line"
         x="232.12305"
         y="549.88458"
         id="tspan3559">goal</tspan></text>
    <text
       xml:space="preserve"
       style="color:#000000;font-style:normal;font-variant:normal;font-weight:bold;font-stretch:normal;font-size:13.75px;line-height:125%;font-family:'Nimbus Sans L';-inkscape-font-specification:'Nimbus Sans L Bold';text-indent:0;text-align:start;text-decoration:none;text-decoration-line:none;text-decoration-style:solid;text-decoration-color:#000000;letter-spacing:normal;word-spacing:normal;text-transform:none;direction:ltr;block-progression:tb;writing-mode:lr-tb;baseline-shift:baseline;text-anchor:start;white-space:normal;clip-rule:nonzero;display:inline;overflow:visible;visibility:visible;opacity:1;isolation:auto;mix-blend-mode:normal;color-interpolation:sRGB;color-interpolation-filters:linearRGB;solid-color:#000000;solid-opacity:1;fill:#000000;fill-opacity:1;fill-rule:evenodd;stroke:none;stroke-width:1px;stroke-linecap:butt;stroke-linejoin:miter;stroke-miterlimit:4;stroke-dasharray:none;stroke-dashoffset:0;stroke-opacity:1;marker:none;marker-start:none;marker-mid:none;marker-end:none;color-rendering:auto;image-rendering:auto;shape-rendering:auto;text-rendering:auto;enable-background:accumulate"
       x="296.88235"
       y="436.86078"
       id="text3523-6"
       sodipodi:linespacing="125%"><tspan
         sodipodi:role="line"
         x="296.88235"
         y="436.86078"
         id="tspan3527-7">DEA*</tspan></text>
    <text
       xml:space="preserve"
       style="color:#000000;font-style:normal;font-variant:normal;font-weight:bold;font-stretch:normal;font-size:10px;line-height:93.99999976%;font-family:'Nimbus Sans L';-inkscape-font-specification:'Nimbus Sans L Bold';text-indent:0;text-align:start;text-decoration:none;text-decoration-line:none;text-decoration-style:solid;text-decoration-color:#000000;letter-spacing:normal;word-spacing:normal;text-transform:none;direction:ltr;block-progression:tb;writing-mode:lr-tb;baseline-shift:baseline;text-anchor:start;white-space:normal;clip-rule:nonzero;display:inline;overflow:visible;visibility:visible;opacity:1;isolation:auto;mix-blend-mode:normal;color-interpolation:sRGB;color-interpolation-filters:linearRGB;solid-color:#000000;solid-opacity:1;fill:#000000;fill-opacity:1;fill-rule:evenodd;stroke:none;stroke-width:1px;stroke-linecap:butt;stroke-linejoin:miter;stroke-miterlimit:4;stroke-dasharray:none;stroke-dashoffset:0;stroke-opacity:1;marker:none;marker-start:none;marker-mid:none;marker-end:none;color-rendering:auto;image-rendering:auto;shape-rendering:auto;text-rendering:auto;enable-background:accumulate"
       x="281.3468"
       y="446.58347"
       id="text3535-5"
       sodipodi:linespacing="94%"><tspan
         sodipodi:role="line"
         id="tspan3537-3"
         x="281.3468"
         y="446.58347"
         style="fill:#0000ff">q A(5)</tspan><tspan
         sodipodi:role="line"
         x="281.3468"
         y="455.98346"
         id="tspan3539-5"
         style="fill:#0000ff">p A(5)</tspan><tspan
         sodipodi:role="line"
         x="281.3468"
         y="465.38345"
         id="tspan3722"
         style="fill:#ff0000">q A(5)</tspan><tspan
         sodipodi:role="line"
         x="281.3468"
         y="474.78348"
         id="tspan3724"
         style="fill:#ff0000">p A(5)</tspan><tspan
         sodipodi:role="line"
         x="281.3468"
         y="484.18347"
         id="tspan3541-6"
         style="fill:#ff0000">e A(5)</tspan><tspan
         sodipodi:role="line"
         x="281.3468"
         y="493.58347"
         id="tspan3543-2"
         style="fill:#0000ff">q B(3)</tspan><tspan
         sodipodi:role="line"
         x="281.3468"
         y="502.98346"
         id="tspan3545-9"
         style="fill:#0000ff">q C(5)</tspan><tspan
         sodipodi:role="line"
         x="281.3468"
         y="512.38348"
         id="tspan3559-6"
         style="fill:#0000ff">p B(3)</tspan><tspan
         sodipodi:role="line"
         x="281.3468"
         y="521.78345"
         id="tspan3666"
         style="fill:#ff0000">q B(8)</tspan><tspan
         sodipodi:role="line"
         x="281.3468"
         y="531.18347"
         id="tspan3668"
         style="fill:#0000ff">p C(5)</tspan><tspan
         sodipodi:role="line"
         x="281.3468"
         y="540.58344"
         id="tspan3670"
         style="fill:#ff0000">q C(10)</tspan><tspan
         sodipodi:role="line"
         x="281.3468"
         y="549.98346"
         id="tspan3720"
         style="fill:#ff0000">p B(8)</tspan><tspan
         sodipodi:role="line"
         x="281.3468"
         y="559.38348"
         id="tspan3672" /></text>
    <text
       xml:space="preserve"
       style="color:#000000;font-style:normal;font-variant:normal;font-weight:bold;font-stretch:normal;font-size:10px;line-height:93.99999976%;font-family:'Nimbus Sans L';-inkscape-font-specification:'Nimbus Sans L Bold';text-indent:0;text-align:start;text-decoration:none;text-decoration-line:none;text-decoration-style:solid;text-decoration-color:#000000;letter-spacing:normal;word-spacing:normal;text-transform:none;direction:ltr;block-progression:tb;writing-mode:lr-tb;baseline-shift:baseline;text-anchor:start;white-space:normal;clip-rule:nonzero;display:inline;overflow:visible;visibility:visible;opacity:1;isolation:auto;mix-blend-mode:normal;color-interpolation:sRGB;color-interpolation-filters:linearRGB;solid-color:#000000;solid-opacity:1;fill:#000000;fill-opacity:1;fill-rule:evenodd;stroke:none;stroke-width:1px;stroke-linecap:butt;stroke-linejoin:miter;stroke-miterlimit:4;stroke-dasharray:none;stroke-dashoffset:0;stroke-opacity:1;marker:none;marker-start:none;marker-mid:none;marker-end:none;color-rendering:auto;image-rendering:auto;shape-rendering:auto;text-rendering:auto;enable-background:accumulate"
       x="321.82507"
       y="436.76187"
       id="text3753"
       sodipodi:linespacing="94%"><tspan
         sodipodi:role="line"
         id="tspan3755"
         x="321.82507"
         y="436.76187" /><tspan
         sodipodi:role="line"
         x="321.82507"
         y="446.16187"
         id="tspan3757"
         style="fill:#ff0000">e B(8)</tspan><tspan
         sodipodi:role="line"
         x="321.82507"
         y="455.56186"
         id="tspan3759"
         style="fill:#0000ff">q D(106)</tspan><tspan
         sodipodi:role="line"
         x="321.82507"
         y="464.96188"
         id="tspan3761"
         style="fill:#0000ff">q C(8)</tspan><tspan
         sodipodi:role="line"
         x="321.82507"
         y="474.36188"
         id="tspan3809"
         style="fill:#0000ff">p C(8)</tspan><tspan
         sodipodi:role="line"
         x="321.82507"
         y="483.76187"
         id="tspan3815"
         style="fill:#ff0000">q C(18)</tspan><tspan
         sodipodi:role="line"
         x="321.82507"
         y="493.16187"
         id="tspan3811"
         style="fill:#ff0000">p C(10)</tspan><tspan
         sodipodi:role="line"
         x="321.82507"
         y="502.56186"
         id="tspan3765"
         style="fill:#ff0000">e C(10)</tspan><tspan
         sodipodi:role="line"
         x="321.82507"
         y="511.96188"
         id="tspan3767">goal</tspan></text>
    <path
       style="fill:none;fill-rule:evenodd;stroke:#000000;stroke-width:1px;stroke-linecap:butt;stroke-linejoin:miter;stroke-opacity:1"
       d="m 317.0833,439.321 0,111.36932"
       id="path3851"
       inkscape:connector-curvature="0" />
  </g>
</svg>
